[
    {
        "_id": "54cd15269b564295318f1aec",
        "image": {
            "url": "http://fc03.deviantart.net/fs71/i/2013/231/1/1/behind_the_mask__darth_vader_by_thefreaksworld-d6ivm0b.jpg"
        },
        "gender": 1,
        "name": "Horne Butler",
        "info": {
            "bio": "<p>Commodo laborum ullamco do fugiat enim aute. Pariatur laborum laborum aliquip voluptate enim dolore. Consectetur nulla et irure quis excepteur et voluptate in adipisicing sunt qui. Qui officia eu dolor nulla amet. Cillum laborum et cillum minim incididunt veniam irure ut Lorem reprehenderit non velit fugiat. Non reprehenderit anim eiusmod tempor ea esse incididunt minim. Duis culpa id nulla sit do commodo excepteur sint mollit.\r\n</p><p>Quis eiusmod laboris do aliquip excepteur velit. Deserunt minim culpa incididunt sint minim quis duis ullamco eu commodo occaecat tempor. Exercitation in mollit aliquip laboris consectetur cillum irure ullamco non. Quis laborum pariatur eiusmod cillum. Reprehenderit velit minim ullamco velit non.\r\n</p>",
            "phone": "+1 (981) 480-3895",
            "feedbackCount": 10
        }
    },
    {
        "_id": "54cd1526fe03de12394e6ff0",
        "image": {
            "url": "http://fc03.deviantart.net/fs71/i/2013/231/1/1/behind_the_mask__darth_vader_by_thefreaksworld-d6ivm0b.jpg"
        },
        "gender": 1,
        "name": "Strickland Norris",
        "info": {
            "bio": "<p>Ad dolor duis qui irure magna. Fugiat velit incididunt aliqua veniam et consequat aliquip cupidatat labore et consequat in veniam veniam. Proident aliqua nisi magna amet.\r\n</p><p>Esse deserunt id ea id eiusmod laboris elit tempor aliquip ullamco labore. Eu magna laborum ipsum culpa est sint eiusmod veniam aute do. Lorem velit in proident consectetur ea officia ullamco.\r\n</p>",
            "phone": "+1 (931) 593-2931",
            "feedbackCount": 10
        }
    },
    {
        "_id": "54cd1526496517ce46213762",
        "image": {
            "url": "http://fc03.deviantart.net/fs71/i/2013/231/1/1/behind_the_mask__darth_vader_by_thefreaksworld-d6ivm0b.jpg"
        },
        "gender": 1,
        "name": "Reva Nguyen",
        "info": {
            "bio": "<p>Aliquip est ad nostrud commodo dolore ut incididunt reprehenderit aute et reprehenderit. Excepteur velit nisi magna esse proident minim sint proident in. Culpa irure tempor cillum culpa. Consequat do duis dolore ea nostrud amet laboris commodo nisi minim irure. Sunt sunt sunt cillum ipsum eiusmod aliqua. Consectetur mollit labore consectetur ad sit fugiat cillum.\r\n</p><p>In ullamco Lorem qui magna duis est nisi irure. Ut Lorem consequat qui id cupidatat irure. Eiusmod occaecat dolor sit magna occaecat dolor aliqua amet labore eiusmod sunt voluptate ipsum amet. Pariatur et eiusmod Lorem magna sit laborum.\r\n</p>",
            "phone": "+1 (868) 476-3909",
            "feedbackCount": 50
        }
    },
    {
        "_id": "54cd152665a9c01883453217",
        "image": {
            "url": "http://fc03.deviantart.net/fs71/i/2013/231/1/1/behind_the_mask__darth_vader_by_thefreaksworld-d6ivm0b.jpg"
        },
        "gender": 0,
        "name": "Andrews Foreman",
        "info": {
            "bio": "<p>Cupidatat nostrud voluptate consectetur fugiat excepteur est. Qui duis ex dolor anim nostrud reprehenderit qui. Aute reprehenderit veniam sint irure incididunt officia minim officia Lorem ea deserunt excepteur irure. Ullamco ea officia Lorem voluptate aliqua veniam esse enim exercitation pariatur officia reprehenderit. Dolor laborum ea velit magna aute adipisicing. Do eu pariatur aliqua est ex sit aliqua. Velit duis tempor laboris ullamco adipisicing excepteur reprehenderit ad quis magna labore est enim.\r\n</p><p>Lorem magna tempor nostrud adipisicing proident dolore laborum pariatur Lorem. Et dolore qui sunt occaecat deserunt anim cupidatat mollit qui. Consequat et ea quis sit in et elit aute.\r\n</p>",
            "phone": "+1 (842) 592-3809",
            "feedbackCount": 10
        }
    },
    {
        "_id": "54cd1526dd8421867122bd44",
        "image": {
            "url": "http://fc03.deviantart.net/fs71/i/2013/231/1/1/behind_the_mask__darth_vader_by_thefreaksworld-d6ivm0b.jpg"
        },
        "gender": 1,
        "name": "Emerson Michael",
        "info": {
            "bio": "<p>Aliquip qui eiusmod sit eiusmod velit non et enim voluptate enim voluptate officia dolor. Ea dolore aliquip nostrud duis sint cillum do ea elit do pariatur laboris. Deserunt irure elit enim proident laborum duis laboris mollit minim do. Eiusmod culpa sunt eu ea non deserunt ea ullamco eu ea id dolore. Aliquip occaecat non officia dolor do dolore sit ullamco sunt cillum ut mollit. Consectetur ad velit qui laboris esse sint. Sunt ex do ex eu ad esse aute culpa ea.\r\n</p><p>Qui reprehenderit est Lorem eu quis elit reprehenderit fugiat laboris consectetur eu incididunt. Occaecat magna aliqua id qui duis est voluptate eu ad amet in laborum quis labore. Commodo minim deserunt consectetur ullamco aliqua officia nisi sunt laboris adipisicing. Do incididunt qui nostrud nisi ex ea aliqua nostrud elit. Magna sit magna sit non minim labore excepteur elit voluptate.\r\n</p>",
            "phone": "+1 (970) 516-2748",
            "feedbackCount": 10
        }
    },
    {
        "_id": "54cd152681596e1a29441864",
        "image": {
            "url": "http://fc03.deviantart.net/fs71/i/2013/231/1/1/behind_the_mask__darth_vader_by_thefreaksworld-d6ivm0b.jpg"
        },
        "gender": 1,
        "name": "Keller Fulton",
        "info": {
            "bio": "<p>Magna dolore cillum aliqua aliquip sit dolore ut incididunt voluptate nostrud minim enim. Mollit duis enim qui cupidatat et do fugiat esse ipsum voluptate do ex consectetur. Ullamco velit nostrud id quis reprehenderit cillum laboris. Veniam velit ullamco ad adipisicing sit velit laborum incididunt nulla sit duis. Culpa dolore commodo ea Lorem nisi nisi adipisicing. Labore aute cupidatat deserunt eiusmod ut duis cillum magna aliqua labore labore.\r\n</p><p>Tempor labore cupidatat non culpa veniam id voluptate amet non. Minim sit deserunt velit esse in nostrud aliqua ea proident veniam et proident. Lorem proident proident deserunt amet. Deserunt occaecat laborum consectetur aute magna ea sint dolore consequat cillum est mollit occaecat ipsum. Exercitation ea anim laborum reprehenderit id et laborum consectetur commodo cupidatat duis Lorem dolore anim. Fugiat excepteur amet laboris non dolore.\r\n</p>",
            "phone": "+1 (956) 510-3731",
            "feedbackCount": 10
        }
    },
    {
        "_id": "54cd1526af32e1b0178bea8a",
        "image": {
            "url": "http://fc03.deviantart.net/fs71/i/2013/231/1/1/behind_the_mask__darth_vader_by_thefreaksworld-d6ivm0b.jpg"
        },
        "gender": 0,
        "name": "Velasquez Hill",
        "info": {
            "bio": "<p>Enim irure aliquip aute dolore irure ad laborum excepteur pariatur laboris nisi sit. Proident laborum laborum veniam occaecat sit sit ut proident. Ipsum excepteur officia qui ullamco ad anim culpa duis cillum ullamco incididunt ipsum reprehenderit. Lorem culpa fugiat anim irure sint incididunt.\r\n</p><p>Enim ea consequat proident culpa duis. Sunt dolor ut eiusmod velit anim reprehenderit aliqua ad proident culpa consequat do. Adipisicing ut pariatur amet pariatur. Do eiusmod velit laboris labore incididunt anim et ad.\r\n</p>",
            "phone": "+1 (817) 431-2022",
            "feedbackCount": 50
        }
    },
    {
        "_id": "54cd1526fef209da6d0db236",
        "image": {
            "url": "http://fc03.deviantart.net/fs71/i/2013/231/1/1/behind_the_mask__darth_vader_by_thefreaksworld-d6ivm0b.jpg"
        },
        "gender": 1,
        "name": "Janelle Edwards",
        "info": {
            "bio": "<p>Aute exercitation exercitation consectetur anim consequat cupidatat qui occaecat voluptate aute qui irure fugiat. Cupidatat consectetur commodo ipsum nostrud ea consequat laborum. Nisi enim exercitation occaecat quis mollit duis ullamco tempor. Minim et eiusmod elit aliqua. Qui cupidatat Lorem excepteur consequat fugiat proident sunt laborum cupidatat.\r\n</p><p>Tempor reprehenderit velit excepteur ut excepteur magna et occaecat mollit nostrud velit minim deserunt. Labore ex elit non minim nulla culpa pariatur labore elit. Irure laboris adipisicing amet aliqua est nisi eu fugiat aliquip nisi. Consectetur reprehenderit pariatur velit velit consectetur amet mollit commodo laboris culpa labore laborum.\r\n</p>",
            "phone": "+1 (857) 549-3495",
            "feedbackCount": 10
        }
    },
    {
        "_id": "54cd1526a57b69bd4805312e",
        "image": {
            "url": "http://fc03.deviantart.net/fs71/i/2013/231/1/1/behind_the_mask__darth_vader_by_thefreaksworld-d6ivm0b.jpg"
        },
        "gender": 0,
        "name": "Burks Rice",
        "info": {
            "bio": "<p>Magna labore laborum veniam ullamco ipsum consequat. Cillum non consequat sit laborum eiusmod non dolor est reprehenderit officia nulla ea minim fugiat. Labore ipsum adipisicing dolore sit labore excepteur adipisicing nisi laboris labore aliqua amet exercitation.\r\n</p><p>Eiusmod enim eiusmod et sint voluptate laboris deserunt incididunt id labore. Enim ullamco sit in ullamco veniam cupidatat eu officia minim duis. Proident voluptate aute ipsum laboris proident minim. Consectetur tempor pariatur incididunt veniam aliqua esse quis officia. Nostrud qui sint eu id nulla cillum esse tempor ut. Aliquip officia dolor ipsum ullamco sint ad minim dolore est culpa fugiat et. Proident nostrud est anim eiusmod amet.\r\n</p>",
            "phone": "+1 (803) 412-2740",
            "feedbackCount": 50
        }
    },
    {
        "_id": "54cd1526e569655d568df300",
        "image": {
            "url": "http://fc03.deviantart.net/fs71/i/2013/231/1/1/behind_the_mask__darth_vader_by_thefreaksworld-d6ivm0b.jpg"
        },
        "gender": 1,
        "name": "Maria Erickson",
        "info": {
            "bio": "<p>Ullamco proident ipsum exercitation consequat deserunt irure enim non nostrud aute sit. Exercitation consequat veniam excepteur tempor ad cupidatat reprehenderit non culpa qui cillum sit. Sit consequat mollit aliqua velit nostrud nostrud labore commodo nulla deserunt ex.\r\n</p><p>Consequat incididunt eiusmod velit duis commodo. Enim ipsum nostrud dolore minim ut id sint duis sint velit consequat. Elit reprehenderit labore duis sunt incididunt ad commodo fugiat sit exercitation ea officia occaecat. Sint voluptate cillum anim exercitation adipisicing fugiat nisi qui ex proident ipsum dolore excepteur. Nisi consequat irure magna dolor nisi est. Ad consequat Lorem veniam labore excepteur duis cupidatat exercitation labore. Id pariatur laborum qui magna mollit Lorem cupidatat aliquip adipisicing fugiat anim fugiat exercitation.\r\n</p>",
            "phone": "+1 (932) 480-2720",
            "feedbackCount": 10
        }
    },
    {
        "_id": "54cd1526df481a796dd2fd1a",
        "image": {
            "url": "http://fc03.deviantart.net/fs71/i/2013/231/1/1/behind_the_mask__darth_vader_by_thefreaksworld-d6ivm0b.jpg"
        },
        "gender": 1,
        "name": "Waters Noel",
        "info": {
            "bio": "<p>Non deserunt esse velit ex pariatur incididunt excepteur ad exercitation. Sit nostrud minim sunt occaecat voluptate est reprehenderit consectetur est aliquip. Ex enim labore enim ea voluptate proident commodo ipsum anim et. Reprehenderit ad est ullamco et fugiat ut Lorem anim deserunt et magna enim. Sunt commodo elit minim non fugiat id laboris excepteur. Quis laborum veniam adipisicing reprehenderit. Nostrud deserunt voluptate commodo aliquip ipsum amet irure pariatur ipsum eiusmod culpa officia ea nisi.\r\n</p><p>Et consequat fugiat pariatur consequat id qui dolor sunt deserunt. Duis cillum laborum tempor consequat exercitation labore enim proident adipisicing dolor. Voluptate consectetur cupidatat culpa veniam et mollit anim incididunt. Pariatur sit ullamco qui ullamco. Anim enim deserunt quis duis tempor proident adipisicing id officia. Esse voluptate excepteur proident incididunt amet occaecat consequat. Mollit veniam id dolor in qui est ad eu est.\r\n</p>",
            "phone": "+1 (833) 547-3062",
            "feedbackCount": 50
        }
    },
    {
        "_id": "54cd15261227d9fd06b9fd76",
        "image": {
            "url": "http://fc03.deviantart.net/fs71/i/2013/231/1/1/behind_the_mask__darth_vader_by_thefreaksworld-d6ivm0b.jpg"
        },
        "gender": 0,
        "name": "Latasha Rollins",
        "info": {
            "bio": "<p>Tempor magna ad do laborum irure laboris aliqua consequat anim mollit et. Cupidatat occaecat esse ex amet. Cillum aute reprehenderit dolore ullamco ipsum sunt aute anim ex. Elit non ea ut cillum proident nostrud consectetur veniam id. Consequat ex sint et minim Lorem velit officia ad est. Dolor esse culpa ea proident magna labore magna nostrud cupidatat aute in incididunt voluptate est.\r\n</p><p>Tempor id occaecat et deserunt. Mollit minim duis aliquip voluptate esse ex. Eiusmod laboris veniam esse consequat commodo anim duis ex officia ad esse nisi tempor nisi. Commodo est non nisi commodo consectetur sint nulla irure anim consectetur ut. Proident ullamco dolor laboris cillum sunt tempor voluptate.\r\n</p>",
            "phone": "+1 (828) 523-2580",
            "feedbackCount": 10
        }
    },
    {
        "_id": "54cd15264d8a07555d41cfb8",
        "image": {
            "url": "http://fc03.deviantart.net/fs71/i/2013/231/1/1/behind_the_mask__darth_vader_by_thefreaksworld-d6ivm0b.jpg"
        },
        "gender": 0,
        "name": "Chandra Vinson",
        "info": {
            "bio": "<p>Reprehenderit Lorem nisi nostrud consequat irure excepteur ex excepteur aliquip. Et enim sunt dolor eiusmod ea duis anim laboris occaecat fugiat ex in duis. Consectetur laboris est in irure eiusmod qui exercitation commodo proident nostrud. Fugiat deserunt magna officia qui ex quis cillum duis esse Lorem ad elit. Voluptate duis et voluptate cillum.\r\n</p><p>Nostrud laboris laborum deserunt cupidatat velit excepteur do sint ipsum incididunt Lorem eu dolore. Duis labore sunt officia consequat officia deserunt qui magna cupidatat laborum proident non amet. Minim et dolor quis tempor.\r\n</p>",
            "phone": "+1 (837) 506-3037",
            "feedbackCount": 10
        }
    },
    {
        "_id": "54cd15263c1b20435f247738",
        "image": {
            "url": "http://fc03.deviantart.net/fs71/i/2013/231/1/1/behind_the_mask__darth_vader_by_thefreaksworld-d6ivm0b.jpg"
        },
        "gender": 0,
        "name": "Fay Gray",
        "info": {
            "bio": "<p>Deserunt irure velit dolore dolore incididunt tempor eu excepteur quis. Dolor consequat in veniam ut non magna irure ea. Ea culpa incididunt pariatur aute commodo ut veniam incididunt cupidatat. Quis anim adipisicing minim est consequat mollit. Qui sit nisi qui ullamco. Id veniam in aliquip sit excepteur dolor irure officia duis. Deserunt fugiat enim est eiusmod non mollit fugiat ex nulla laborum commodo dolor laboris labore.\r\n</p><p>Nostrud enim labore amet nisi pariatur duis laboris culpa esse. Magna non deserunt irure laborum ipsum dolor irure veniam voluptate duis occaecat esse non. Pariatur cupidatat aliquip irure minim ad mollit cupidatat cupidatat. Et excepteur veniam cillum reprehenderit fugiat est. Excepteur deserunt et est culpa fugiat anim sunt cillum sunt aute ex pariatur id. Ipsum elit laborum velit amet commodo laborum.\r\n</p>",
            "phone": "+1 (918) 437-3730",
            "feedbackCount": 50
        }
    },
    {
        "_id": "54cd152626cac85d868b0c40",
        "image": {
            "url": "http://fc03.deviantart.net/fs71/i/2013/231/1/1/behind_the_mask__darth_vader_by_thefreaksworld-d6ivm0b.jpg"
        },
        "gender": 0,
        "name": "Letha Bowman",
        "info": {
            "bio": "<p>Ex incididunt est magna consequat laboris nulla cupidatat. Anim laborum nulla pariatur minim commodo laboris nisi eu nisi. Sint occaecat laboris consequat deserunt sint dolor qui. Commodo nisi ut proident nulla quis esse culpa pariatur ad. Ea aliquip cupidatat commodo fugiat duis ullamco amet anim occaecat consectetur.\r\n</p><p>Laboris anim ut aliqua ipsum cupidatat irure. Ea tempor incididunt mollit adipisicing. Ullamco consectetur deserunt quis duis nostrud voluptate fugiat adipisicing ad occaecat officia sint. Ut eiusmod quis consectetur consequat elit commodo ullamco in excepteur esse ex esse dolor. Et enim do irure adipisicing. Ullamco reprehenderit culpa qui eu proident minim incididunt veniam fugiat ipsum sunt aute tempor. Anim amet sunt in consequat dolor duis.\r\n</p>",
            "phone": "+1 (971) 492-3493",
            "feedbackCount": 50
        }
    },
    {
        "_id": "54cd152621fbb782baea55c9",
        "image": {
            "url": "http://fc03.deviantart.net/fs71/i/2013/231/1/1/behind_the_mask__darth_vader_by_thefreaksworld-d6ivm0b.jpg"
        },
        "gender": 0,
        "name": "Minnie Curtis",
        "info": {
            "bio": "<p>Ut non sunt laborum mollit cillum deserunt mollit laboris consequat. Proident aliquip incididunt nisi anim elit. Reprehenderit dolore ea officia consequat. Nostrud dolore voluptate dolor tempor aliquip aliqua voluptate. Ut occaecat mollit aliqua nostrud commodo est veniam culpa Lorem exercitation.\r\n</p><p>Incididunt sunt labore amet cupidatat irure eu incididunt non consectetur quis est proident. Aute ex officia dolore elit sint irure laborum eiusmod nostrud Lorem ipsum consectetur tempor. Incididunt consectetur sint magna id. Duis minim ex reprehenderit nostrud id pariatur aliqua ad non ad irure. Ex reprehenderit proident quis duis. Sunt dolore esse elit qui adipisicing. Amet laborum reprehenderit Lorem est consequat aute adipisicing ad est.\r\n</p>",
            "phone": "+1 (963) 470-2647",
            "feedbackCount": 50
        }
    },
    {
        "_id": "54cd1526a50bf664d3431dad",
        "image": {
            "url": "http://fc03.deviantart.net/fs71/i/2013/231/1/1/behind_the_mask__darth_vader_by_thefreaksworld-d6ivm0b.jpg"
        },
        "gender": 0,
        "name": "Ericka Nixon",
        "info": {
            "bio": "<p>Ut ipsum deserunt aute qui aliqua sit esse Lorem qui do aliqua quis. Ea pariatur incididunt anim veniam. Fugiat magna do amet exercitation dolore velit ullamco reprehenderit. Minim cillum exercitation aliquip ullamco nulla adipisicing. Dolore cillum laborum culpa amet ad commodo aliqua eu ullamco id reprehenderit tempor labore. Lorem non irure do enim.\r\n</p><p>Cupidatat culpa adipisicing reprehenderit amet laboris culpa ea Lorem cupidatat in laboris amet enim commodo. Proident ea ad officia incididunt veniam laborum. Culpa deserunt culpa commodo do pariatur ipsum deserunt est velit dolor. Non sunt laborum eiusmod consequat labore ut qui elit excepteur. Incididunt dolore in ad aliquip est. Est consectetur non veniam id quis exercitation.\r\n</p>",
            "phone": "+1 (950) 531-2963",
            "feedbackCount": 50
        }
    },
    {
        "_id": "54cd1526aa5b5ba970fcb9de",
        "image": {
            "url": "http://fc03.deviantart.net/fs71/i/2013/231/1/1/behind_the_mask__darth_vader_by_thefreaksworld-d6ivm0b.jpg"
        },
        "gender": 1,
        "name": "Horton Mcdaniel",
        "info": {
            "bio": "<p>Esse ipsum nulla sit quis. Consequat ex consequat eu tempor. In duis nisi quis eu occaecat cillum magna tempor proident. Minim laborum laborum et amet eiusmod laborum sint cupidatat eu sit amet. Quis occaecat nulla reprehenderit ea id sit fugiat id. Ut eu ea sit ut reprehenderit ad laborum sint in. Aliquip veniam esse sit id.\r\n</p><p>Magna sit velit reprehenderit aliquip voluptate enim ullamco commodo sit aliquip tempor et. Irure elit sunt eu sunt mollit officia exercitation. Dolore commodo in anim pariatur culpa adipisicing aute culpa sit aliqua incididunt occaecat. Occaecat enim consequat sit sint minim aute occaecat reprehenderit non excepteur do.\r\n</p>",
            "phone": "+1 (829) 570-3754",
            "feedbackCount": 50
        }
    },
    {
        "_id": "54cd15266e84bef15528c650",
        "image": {
            "url": "http://fc03.deviantart.net/fs71/i/2013/231/1/1/behind_the_mask__darth_vader_by_thefreaksworld-d6ivm0b.jpg"
        },
        "gender": 1,
        "name": "Benson Britt",
        "info": {
            "bio": "<p>Fugiat aute sunt eu eu excepteur Lorem labore adipisicing velit. Ullamco anim cupidatat id laborum anim. Laborum anim proident commodo dolore consectetur duis officia minim eiusmod qui dolor. Excepteur in deserunt do aute exercitation ea excepteur. Ullamco esse eiusmod aute consectetur fugiat nostrud elit qui dolore nisi ullamco.\r\n</p><p>Voluptate Lorem laboris duis incididunt. Commodo deserunt nostrud anim esse mollit esse sint cupidatat ipsum. Mollit dolor consectetur sint occaecat deserunt enim esse ex occaecat labore sit labore officia esse. Adipisicing in fugiat quis tempor enim nisi ullamco officia dolor. Non voluptate id est ipsum fugiat non mollit voluptate ullamco ad sunt id. Ad dolore dolor do aliqua Lorem non do ea amet laborum. Ex eiusmod esse ex irure id et dolore esse est nisi mollit fugiat est.\r\n</p>",
            "phone": "+1 (840) 464-2067",
            "feedbackCount": 10
        }
    },
    {
        "_id": "54cd1526354fc6e0d3ad5eee",
        "image": {
            "url": "http://fc03.deviantart.net/fs71/i/2013/231/1/1/behind_the_mask__darth_vader_by_thefreaksworld-d6ivm0b.jpg"
        },
        "gender": 1,
        "name": "Leanne Wiley",
        "info": {
            "bio": "<p>Nisi veniam ut aliquip culpa velit. Eiusmod cupidatat aute exercitation in. Elit eiusmod sint laboris laboris fugiat est consequat consectetur voluptate velit ipsum in. Incididunt labore officia laborum do aliqua incididunt occaecat. Ullamco veniam dolor nostrud consectetur aliquip anim sint.\r\n</p><p>Excepteur exercitation incididunt aliqua qui ipsum ea. Elit laboris nulla dolore nisi culpa magna duis mollit officia tempor. Ipsum officia proident consectetur id excepteur consectetur in do exercitation magna commodo voluptate tempor dolore.\r\n</p>",
            "phone": "+1 (980) 444-2911",
            "feedbackCount": 10
        }
    },
    {
        "_id": "54cd15267c7a80373db073b8",
        "image": {
            "url": "http://fc03.deviantart.net/fs71/i/2013/231/1/1/behind_the_mask__darth_vader_by_thefreaksworld-d6ivm0b.jpg"
        },
        "gender": 0,
        "name": "Larsen Benson",
        "info": {
            "bio": "<p>Eiusmod cupidatat tempor mollit officia. Deserunt non voluptate sint Lorem tempor. Ex elit ipsum minim velit ullamco.\r\n</p><p>Pariatur enim quis voluptate nulla excepteur ex. Reprehenderit sint id dolore nulla laboris nisi duis ea ea esse sit cupidatat. Nulla qui est elit et excepteur ex elit nostrud dolore et ex nostrud.\r\n</p>",
            "phone": "+1 (985) 549-2273",
            "feedbackCount": 10
        }
    },
    {
        "_id": "54cd152625b3310a065c2fa0",
        "image": {
            "url": "http://fc03.deviantart.net/fs71/i/2013/231/1/1/behind_the_mask__darth_vader_by_thefreaksworld-d6ivm0b.jpg"
        },
        "gender": 1,
        "name": "Louisa Kidd",
        "info": {
            "bio": "<p>Minim mollit officia pariatur veniam pariatur. Exercitation adipisicing aliquip duis occaecat velit aute. Minim et cillum est nulla cillum officia laboris dolore ullamco ex magna. Excepteur magna tempor exercitation qui ut ad reprehenderit. Ut aliquip consequat ad sit eu magna duis incididunt consequat ipsum non. Lorem ut labore nostrud et magna deserunt aliqua.\r\n</p><p>Occaecat aliqua commodo non sunt velit non mollit mollit nisi deserunt. Sit et et proident nostrud consectetur fugiat dolor deserunt. Quis tempor fugiat laborum culpa. Est et anim nisi culpa cillum voluptate enim ea quis. Qui proident velit minim in aliqua elit excepteur nisi consequat mollit sunt mollit labore incididunt. Cupidatat in ullamco eiusmod laborum consequat et voluptate culpa ea incididunt nisi. Occaecat consectetur ex labore amet sunt dolor pariatur magna esse laboris dolore minim anim.\r\n</p>",
            "phone": "+1 (877) 495-2569",
            "feedbackCount": 10
        }
    },
    {
        "_id": "54cd15267706b52f760ecb67",
        "image": {
            "url": "http://fc03.deviantart.net/fs71/i/2013/231/1/1/behind_the_mask__darth_vader_by_thefreaksworld-d6ivm0b.jpg"
        },
        "gender": 0,
        "name": "Edwina Wilson",
        "info": {
            "bio": "<p>Lorem velit esse anim officia cupidatat aute aute. Adipisicing ex officia consequat et cupidatat consequat proident quis esse. Esse exercitation cillum incididunt deserunt. Lorem veniam cupidatat eiusmod qui do ex veniam excepteur dolor elit. Officia laborum esse commodo et cupidatat deserunt consequat ipsum nostrud sunt. Laboris tempor laboris occaecat veniam.\r\n</p><p>Et aliqua amet consectetur quis laborum nulla nisi sunt commodo tempor veniam. Aute commodo pariatur officia labore et. Voluptate amet exercitation dolor tempor amet. In ea ex sit sunt Lorem dolore tempor amet.\r\n</p>",
            "phone": "+1 (806) 436-3325",
            "feedbackCount": 10
        }
    },
    {
        "_id": "54cd15267b798c77d963c23d",
        "image": {
            "url": "http://fc03.deviantart.net/fs71/i/2013/231/1/1/behind_the_mask__darth_vader_by_thefreaksworld-d6ivm0b.jpg"
        },
        "gender": 0,
        "name": "Amie Carroll",
        "info": {
            "bio": "<p>Nisi sunt elit velit aliquip pariatur sunt in laboris voluptate exercitation dolor quis culpa cillum. In tempor cupidatat elit sunt ad esse irure nulla labore qui occaecat ea ad consequat. In excepteur dolore nisi commodo qui.\r\n</p><p>Commodo aute deserunt excepteur incididunt deserunt laborum velit. Sit aliquip aliqua magna culpa est fugiat laborum in est aute aliqua officia. Laborum nulla ut duis qui sunt ut nulla minim sint labore. Qui occaecat in tempor aliquip. Dolore ullamco laborum esse anim. Excepteur enim labore velit pariatur excepteur cillum consequat velit. Id in non pariatur quis ut eiusmod sint consequat veniam mollit.\r\n</p>",
            "phone": "+1 (958) 567-2385",
            "feedbackCount": 10
        }
    },
    {
        "_id": "54cd1526c13c4947d11931a0",
        "image": {
            "url": "http://fc03.deviantart.net/fs71/i/2013/231/1/1/behind_the_mask__darth_vader_by_thefreaksworld-d6ivm0b.jpg"
        },
        "gender": 0,
        "name": "Kathie Watson",
        "info": {
            "bio": "<p>Culpa anim proident ipsum id eiusmod laboris ex enim exercitation commodo aliqua ad reprehenderit Lorem. Cillum qui commodo quis tempor et quis ut reprehenderit et nulla consequat. Est laboris sunt ipsum Lorem velit. Amet ipsum reprehenderit deserunt officia laborum aliquip culpa enim non amet deserunt aliqua. Ut laboris ea sint mollit eiusmod magna amet tempor tempor.\r\n</p><p>Ipsum nostrud aute esse velit sunt culpa. Enim id eu reprehenderit occaecat enim voluptate magna qui. Id consequat pariatur mollit labore laboris nulla consectetur voluptate Lorem excepteur quis minim do. Nulla velit non laboris consectetur culpa fugiat incididunt consectetur eu id. In do consectetur fugiat cillum enim laborum labore esse. Est aute non quis eu sint exercitation culpa et. Ipsum sit aliquip aute proident elit cupidatat est voluptate ad laborum ea aliquip id.\r\n</p>",
            "phone": "+1 (924) 573-2737",
            "feedbackCount": 50
        }
    },
    {
        "_id": "54cd152615642149b9d5391f",
        "image": {
            "url": "http://fc03.deviantart.net/fs71/i/2013/231/1/1/behind_the_mask__darth_vader_by_thefreaksworld-d6ivm0b.jpg"
        },
        "gender": 1,
        "name": "Bond Bradley",
        "info": {
            "bio": "<p>Culpa magna esse velit veniam in ea quis. Ea id sit labore laborum laborum culpa ex quis laborum enim minim exercitation. Nisi ipsum Lorem voluptate enim in. Aliqua id amet nulla elit. Cillum qui magna fugiat exercitation dolore id voluptate est ex magna et consectetur officia id. Qui est nostrud velit enim elit do tempor cupidatat id laboris commodo dolore veniam.\r\n</p><p>Lorem ipsum sit duis ipsum dolor officia dolore. Labore amet ullamco amet proident in ea do ipsum id commodo sunt anim id officia. Adipisicing cillum consequat veniam incididunt voluptate cillum fugiat et aliquip reprehenderit do dolore.\r\n</p>",
            "phone": "+1 (969) 586-3745",
            "feedbackCount": 10
        }
    },
    {
        "_id": "54cd15262ce2fc1834a70ff2",
        "image": {
            "url": "http://fc03.deviantart.net/fs71/i/2013/231/1/1/behind_the_mask__darth_vader_by_thefreaksworld-d6ivm0b.jpg"
        },
        "gender": 0,
        "name": "Dodson Avery",
        "info": {
            "bio": "<p>Fugiat eiusmod deserunt reprehenderit quis consectetur ea incididunt cillum pariatur aliqua id excepteur incididunt ut. Magna commodo laboris cillum consectetur eiusmod aliquip veniam veniam magna. Do eu id est laboris laborum voluptate incididunt esse tempor excepteur incididunt. Eiusmod et esse sit sint non.\r\n</p><p>Exercitation labore velit quis dolor. Reprehenderit nostrud et excepteur esse sunt sint minim exercitation incididunt ipsum do nulla. Adipisicing qui nostrud magna adipisicing adipisicing eiusmod cillum. Tempor id aute minim amet amet. In sit proident amet velit ut irure cillum dolore ea anim consequat dolore consequat pariatur. Excepteur minim consectetur laborum excepteur laboris sunt non est quis dolore non non irure. Non eu dolore dolor aliqua deserunt sit nisi veniam ipsum do ea.\r\n</p>",
            "phone": "+1 (824) 450-2527",
            "feedbackCount": 10
        }
    },
    {
        "_id": "54cd1526d7db16f4ed087e21",
        "image": {
            "url": "http://fc03.deviantart.net/fs71/i/2013/231/1/1/behind_the_mask__darth_vader_by_thefreaksworld-d6ivm0b.jpg"
        },
        "gender": 1,
        "name": "Lola Thompson",
        "info": {
            "bio": "<p>Adipisicing aliquip ea sunt eiusmod nisi in officia ipsum culpa in. Ad qui sunt reprehenderit anim eu. Id culpa in sit consectetur ex deserunt mollit. Laborum do sunt minim sit aliquip consectetur cillum enim minim qui proident. Consequat magna minim nostrud sunt proident do est. Eu laborum mollit labore nulla et.\r\n</p><p>Ut reprehenderit sit consectetur cupidatat irure quis qui irure eu tempor. Elit do eiusmod do minim amet occaecat reprehenderit incididunt est culpa duis. Veniam dolor mollit ipsum duis consectetur consectetur ullamco esse laborum consequat.\r\n</p>",
            "phone": "+1 (864) 531-2902",
            "feedbackCount": 10
        }
    },
    {
        "_id": "54cd1526e9ee1f76733db05c",
        "image": {
            "url": "http://fc03.deviantart.net/fs71/i/2013/231/1/1/behind_the_mask__darth_vader_by_thefreaksworld-d6ivm0b.jpg"
        },
        "gender": 1,
        "name": "Ernestine Hampton",
        "info": {
            "bio": "<p>Lorem dolore duis aliqua tempor sunt nostrud veniam veniam. Amet excepteur id reprehenderit occaecat. Adipisicing magna laboris pariatur mollit occaecat tempor mollit proident ullamco. Irure ad pariatur laborum sint excepteur in officia. Est minim sit nostrud incididunt est quis dolore.\r\n</p><p>Irure sint voluptate commodo veniam quis laboris ea voluptate laborum sunt sit. Aliquip ea adipisicing elit in pariatur anim occaecat aliquip id ipsum cillum anim eu voluptate. Labore elit culpa in sint in consectetur elit proident. Incididunt mollit commodo dolore fugiat sunt occaecat tempor culpa irure ad laborum in exercitation aliqua.\r\n</p>",
            "phone": "+1 (998) 550-2872",
            "feedbackCount": 10
        }
    },
    {
        "_id": "54cd1526896384a7b35de40f",
        "image": {
            "url": "http://fc03.deviantart.net/fs71/i/2013/231/1/1/behind_the_mask__darth_vader_by_thefreaksworld-d6ivm0b.jpg"
        },
        "gender": 0,
        "name": "Frankie Jordan",
        "info": {
            "bio": "<p>Consequat voluptate proident anim amet nostrud eu duis officia amet ex id. Mollit elit id irure labore labore est dolore consequat sit officia ea. Ullamco proident duis quis sunt voluptate reprehenderit ipsum exercitation. Veniam veniam fugiat ad consequat mollit sunt amet reprehenderit ipsum ullamco ut et. Qui aliquip cillum laborum ex minim irure sit duis ex ullamco aliquip do. Quis officia tempor anim cillum.\r\n</p><p>Ut officia sunt tempor eu dolore quis culpa consequat. Eu consequat voluptate nulla exercitation elit exercitation anim exercitation. Reprehenderit labore id fugiat sint dolore pariatur. Ad anim anim ex labore fugiat mollit id consequat. Cupidatat commodo Lorem sunt dolore Lorem et incididunt exercitation voluptate cupidatat anim non consectetur.\r\n</p>",
            "phone": "+1 (975) 525-3194",
            "feedbackCount": 10
        }
    },
    {
        "_id": "54cd15265fa1029d82d93114",
        "image": {
            "url": "http://fc03.deviantart.net/fs71/i/2013/231/1/1/behind_the_mask__darth_vader_by_thefreaksworld-d6ivm0b.jpg"
        },
        "gender": 1,
        "name": "Lynn Strickland",
        "info": {
            "bio": "<p>Aliquip occaecat amet deserunt mollit do occaecat non laborum nisi id velit. Adipisicing proident deserunt eu ut velit magna pariatur occaecat voluptate cupidatat ullamco ipsum cillum consequat. Consequat nostrud voluptate sint exercitation nostrud mollit irure aliquip laborum nisi aliqua. Nostrud consequat adipisicing quis minim labore ea sint dolore magna. Labore Lorem esse in esse irure ullamco voluptate in consectetur labore amet culpa est occaecat. Non irure et sit eiusmod officia fugiat officia quis fugiat proident aliqua mollit. Culpa officia ipsum excepteur ea occaecat esse fugiat ipsum qui commodo irure magna in pariatur.\r\n</p><p>Anim commodo cillum magna laborum. Ad mollit amet cupidatat voluptate dolor aute sunt ut ipsum magna exercitation laboris ut adipisicing. Quis laboris tempor commodo nulla non id qui exercitation dolore Lorem et eu qui exercitation. Deserunt in officia sit mollit velit anim esse et anim enim laboris irure anim. Id ex enim enim ea deserunt quis ex fugiat mollit. Reprehenderit sunt reprehenderit cupidatat ipsum reprehenderit irure ea magna Lorem incididunt commodo.\r\n</p>",
            "phone": "+1 (875) 600-2884",
            "feedbackCount": 50
        }
    },
    {
        "_id": "54cd1526c353635838b22d67",
        "image": {
            "url": "http://fc03.deviantart.net/fs71/i/2013/231/1/1/behind_the_mask__darth_vader_by_thefreaksworld-d6ivm0b.jpg"
        },
        "gender": 0,
        "name": "Chasity Luna",
        "info": {
            "bio": "<p>Dolor reprehenderit qui ut excepteur adipisicing dolor. Eu do dolor minim culpa do anim pariatur qui mollit quis exercitation. Excepteur excepteur est ullamco aliqua velit esse incididunt minim consectetur pariatur quis ullamco. Qui voluptate quis quis ea velit non Lorem reprehenderit esse laboris consequat adipisicing Lorem. Non id amet mollit aliqua et nostrud esse officia dolor eiusmod veniam.\r\n</p><p>Elit amet ex ipsum reprehenderit aliqua ullamco anim incididunt ad. In reprehenderit officia velit cupidatat fugiat est enim sunt pariatur adipisicing. Velit aute ullamco ut duis. Et nulla sit sint sint veniam incididunt sit ex aliqua nulla dolore tempor nisi et.\r\n</p>",
            "phone": "+1 (890) 559-3036",
            "feedbackCount": 10
        }
    },
    {
        "_id": "54cd1526a4beb49ba7757db2",
        "image": {
            "url": "http://fc03.deviantart.net/fs71/i/2013/231/1/1/behind_the_mask__darth_vader_by_thefreaksworld-d6ivm0b.jpg"
        },
        "gender": 0,
        "name": "Miriam Waller",
        "info": {
            "bio": "<p>Et do quis magna velit consequat consectetur anim ad cupidatat aliqua laboris sit occaecat ut. Eiusmod quis ad do deserunt occaecat mollit proident eu voluptate sunt. Velit sunt qui ullamco enim adipisicing consequat pariatur velit proident ad. Proident culpa in id sunt velit aliquip consectetur non quis et consectetur aute. Mollit incididunt dolore velit aliquip incididunt. In sit esse est magna quis enim magna deserunt. Tempor aliqua duis adipisicing officia nulla ut culpa tempor sint sunt pariatur tempor.\r\n</p><p>Nisi id velit mollit culpa dolor cupidatat nisi ullamco. Quis cupidatat duis labore exercitation veniam non nisi qui anim quis. Voluptate cupidatat proident commodo velit enim pariatur cupidatat. Magna consectetur veniam consectetur cupidatat voluptate ad dolor voluptate ea dolore laboris ea adipisicing non. Nulla est in amet officia tempor eu ullamco. Minim ut labore Lorem incididunt amet occaecat.\r\n</p>",
            "phone": "+1 (978) 441-3843",
            "feedbackCount": 10
        }
    },
    {
        "_id": "54cd15262370a4d6475f4a8a",
        "image": {
            "url": "http://fc03.deviantart.net/fs71/i/2013/231/1/1/behind_the_mask__darth_vader_by_thefreaksworld-d6ivm0b.jpg"
        },
        "gender": 1,
        "name": "Marie Frost",
        "info": {
            "bio": "<p>Proident ut ullamco exercitation labore aute. Culpa consequat tempor quis est dolore anim mollit cupidatat ex in velit do. Anim cupidatat laboris non consequat laboris enim. Voluptate tempor sint quis pariatur sunt nostrud sunt laborum in qui enim veniam cillum eiusmod. Incididunt culpa quis reprehenderit laboris non minim non eiusmod est dolor.\r\n</p><p>Ad elit fugiat enim ullamco labore veniam officia mollit consequat laborum commodo. Ullamco in nisi do est Lorem anim fugiat ea. Nisi ullamco aliquip esse veniam Lorem officia. Occaecat irure mollit qui dolore laboris irure cillum ex irure sit ipsum ex quis. Excepteur laborum eu dolore aliquip voluptate sit sint. Exercitation esse nisi ut voluptate ex aliquip deserunt ad anim ex amet irure duis.\r\n</p>",
            "phone": "+1 (895) 509-3078",
            "feedbackCount": 50
        }
    },
    {
        "_id": "54cd1526a2cb246a1677550c",
        "image": {
            "url": "http://fc03.deviantart.net/fs71/i/2013/231/1/1/behind_the_mask__darth_vader_by_thefreaksworld-d6ivm0b.jpg"
        },
        "gender": 0,
        "name": "Cora Weiss",
        "info": {
            "bio": "<p>Ullamco Lorem pariatur laboris esse quis in veniam id labore eu ullamco in irure. In dolore est duis laborum sit. Eu est qui voluptate id magna nulla consectetur Lorem.\r\n</p><p>Do Lorem exercitation consectetur id anim in est aliquip fugiat. Adipisicing amet excepteur esse id anim cillum culpa aliquip veniam. Dolor dolor excepteur aliquip esse voluptate. Consectetur sint duis aliquip in eiusmod ut nisi enim adipisicing sit pariatur sint. Reprehenderit eiusmod deserunt sit voluptate cillum aliquip elit irure irure nisi in adipisicing et laboris.\r\n</p>",
            "phone": "+1 (901) 449-2256",
            "feedbackCount": 10
        }
    },
    {
        "_id": "54cd15264ff45b6507d8d2ef",
        "image": {
            "url": "http://fc03.deviantart.net/fs71/i/2013/231/1/1/behind_the_mask__darth_vader_by_thefreaksworld-d6ivm0b.jpg"
        },
        "gender": 1,
        "name": "Jordan Sheppard",
        "info": {
            "bio": "<p>Aute mollit aliquip et voluptate consectetur eiusmod ex. Officia ullamco ullamco adipisicing eu labore nulla id deserunt laborum et eu consequat cillum consequat. Et sint duis consequat fugiat consectetur elit incididunt ad exercitation mollit do magna cupidatat. Id dolor consequat ex Lorem et est magna officia duis nostrud sunt labore.\r\n</p><p>Eu ut tempor exercitation quis do ex aliqua occaecat occaecat nulla quis deserunt adipisicing qui. Fugiat aliquip nostrud mollit ad non. Sint ipsum magna ad minim labore magna aliqua ullamco elit ex ex aute sunt nostrud. Consequat voluptate reprehenderit nisi veniam minim in in. Consequat in exercitation mollit ea esse minim anim in. Esse laboris qui eu do proident ut sit et cupidatat. Reprehenderit quis qui qui ad incididunt consectetur.\r\n</p>",
            "phone": "+1 (835) 587-2308",
            "feedbackCount": 50
        }
    },
    {
        "_id": "54cd1526d01b1d6a55e12dfb",
        "image": {
            "url": "http://fc03.deviantart.net/fs71/i/2013/231/1/1/behind_the_mask__darth_vader_by_thefreaksworld-d6ivm0b.jpg"
        },
        "gender": 1,
        "name": "Amelia Pope",
        "info": {
            "bio": "<p>Eiusmod labore ut reprehenderit cillum adipisicing consectetur nostrud. Aute non elit magna ut. Deserunt mollit in commodo ut laboris dolor voluptate aliqua tempor cillum incididunt. In do cupidatat consequat do ad occaecat ex ullamco occaecat aliqua irure ad.\r\n</p><p>Elit adipisicing in cupidatat excepteur elit dolor do. Culpa consequat aliquip mollit sint deserunt cupidatat ullamco tempor aliqua laborum ipsum velit duis. Ex exercitation laborum et anim pariatur esse esse officia non in sunt. Dolore fugiat amet sint non.\r\n</p>",
            "phone": "+1 (865) 513-3034",
            "feedbackCount": 50
        }
    },
    {
        "_id": "54cd15268cf57e478140c36b",
        "image": {
            "url": "http://fc03.deviantart.net/fs71/i/2013/231/1/1/behind_the_mask__darth_vader_by_thefreaksworld-d6ivm0b.jpg"
        },
        "gender": 0,
        "name": "Mays Cantu",
        "info": {
            "bio": "<p>Incididunt nulla ullamco nulla est aliquip sint non cupidatat. Pariatur laboris magna esse sunt non consequat velit pariatur ex et magna et eiusmod. Mollit consectetur exercitation sit Lorem labore aute eu labore ipsum aute. Est tempor ex magna consequat labore mollit cillum pariatur dolor. Duis elit consectetur id ullamco veniam sunt laboris consectetur cupidatat sit deserunt amet ut dolore. Velit ad eu aute labore duis velit. Est officia labore est officia.\r\n</p><p>Laborum occaecat aute adipisicing sint tempor irure incididunt. Sint minim reprehenderit quis ad labore consectetur cillum minim velit pariatur amet aliqua. Ad reprehenderit dolor dolor Lorem anim magna anim reprehenderit. Ad laborum consequat duis aliqua minim ad eu cillum deserunt et sint. Ullamco ad ut est reprehenderit esse fugiat. Laborum sint laborum pariatur pariatur incididunt occaecat sint aliquip ipsum consequat irure fugiat. Exercitation deserunt mollit esse fugiat dolore non laboris pariatur amet nisi.\r\n</p>",
            "phone": "+1 (935) 473-3346",
            "feedbackCount": 10
        }
    },
    {
        "_id": "54cd1526a6cd6e67c7fa91f9",
        "image": {
            "url": "http://fc03.deviantart.net/fs71/i/2013/231/1/1/behind_the_mask__darth_vader_by_thefreaksworld-d6ivm0b.jpg"
        },
        "gender": 1,
        "name": "Mcfarland Carlson",
        "info": {
            "bio": "<p>Laboris tempor quis est aliquip ad ipsum mollit laborum Lorem aute eiusmod tempor. Ad pariatur laboris reprehenderit labore. Ex eu esse amet nisi.\r\n</p><p>Sint ea amet aliqua aliquip magna consectetur. Incididunt ad occaecat culpa ut culpa eu id ex. Ad velit irure anim Lorem cupidatat in Lorem occaecat.\r\n</p>",
            "phone": "+1 (930) 468-3790",
            "feedbackCount": 50
        }
    },
    {
        "_id": "54cd152618952e8b3a1d32bc",
        "image": {
            "url": "http://fc03.deviantart.net/fs71/i/2013/231/1/1/behind_the_mask__darth_vader_by_thefreaksworld-d6ivm0b.jpg"
        },
        "gender": 1,
        "name": "Bettie Hobbs",
        "info": {
            "bio": "<p>Ipsum velit magna et excepteur enim sint qui. Magna reprehenderit reprehenderit excepteur non laborum voluptate est cupidatat proident incididunt. Occaecat culpa non ea commodo eiusmod reprehenderit enim pariatur id occaecat id eu.\r\n</p><p>Reprehenderit ad commodo et nulla ex est consectetur aliqua ipsum ad. Sit reprehenderit minim enim tempor ut id cupidatat anim. Irure id consequat laboris voluptate eu cillum ea. Mollit ex aute occaecat culpa magna reprehenderit. Nulla sint est ullamco duis.\r\n</p>",
            "phone": "+1 (864) 584-2706",
            "feedbackCount": 50
        }
    },
    {
        "_id": "54cd152604478d6eec57a98c",
        "image": {
            "url": "http://fc03.deviantart.net/fs71/i/2013/231/1/1/behind_the_mask__darth_vader_by_thefreaksworld-d6ivm0b.jpg"
        },
        "gender": 1,
        "name": "Cummings Townsend",
        "info": {
            "bio": "<p>Irure ex aute enim ipsum tempor eu officia occaecat sunt ipsum. Eiusmod aute deserunt in sint nostrud labore proident voluptate cillum et do. Laborum incididunt ullamco aliquip ipsum. Esse reprehenderit amet laboris adipisicing. Anim id ullamco qui aliquip laborum ad incididunt minim labore sunt do magna nostrud laborum.\r\n</p><p>Lorem labore occaecat consectetur pariatur ea. Nulla culpa anim non Lorem tempor id cupidatat officia esse commodo proident pariatur sint incididunt. Ipsum id eiusmod excepteur fugiat amet minim eu amet labore ea cupidatat. Tempor aliqua minim elit sint. Excepteur sit id officia cillum consequat. Irure labore cupidatat occaecat proident velit minim excepteur enim aute amet ad non commodo.\r\n</p>",
            "phone": "+1 (924) 476-2305",
            "feedbackCount": 50
        }
    },
    {
        "_id": "54cd1526bf980c81bae6ce41",
        "image": {
            "url": "http://fc03.deviantart.net/fs71/i/2013/231/1/1/behind_the_mask__darth_vader_by_thefreaksworld-d6ivm0b.jpg"
        },
        "gender": 0,
        "name": "Koch Bentley",
        "info": {
            "bio": "<p>Aliqua quis nulla tempor cillum cillum. Ut magna labore duis laborum aute magna nulla excepteur aute voluptate consectetur pariatur consequat. Consequat pariatur pariatur et dolore do non anim do. Sit incididunt nulla enim velit minim nostrud voluptate occaecat do proident dolore nisi.\r\n</p><p>Quis nostrud anim esse exercitation amet enim culpa ipsum eiusmod voluptate eiusmod exercitation commodo. Excepteur et quis non commodo anim eu pariatur magna commodo. Est dolor ut consequat ut in reprehenderit.\r\n</p>",
            "phone": "+1 (912) 470-2141",
            "feedbackCount": 10
        }
    },
    {
        "_id": "54cd1526b25e8d7fb33ba2d1",
        "image": {
            "url": "http://fc03.deviantart.net/fs71/i/2013/231/1/1/behind_the_mask__darth_vader_by_thefreaksworld-d6ivm0b.jpg"
        },
        "gender": 0,
        "name": "Ada Olsen",
        "info": {
            "bio": "<p>Culpa est voluptate ad in. Commodo irure velit adipisicing mollit eu veniam qui excepteur commodo. Lorem proident pariatur quis exercitation et exercitation. Nostrud officia culpa laborum aliqua sint aute adipisicing esse ea quis sit quis cupidatat. Consectetur pariatur pariatur excepteur laboris incididunt. Sunt ea anim magna aliqua.\r\n</p><p>Labore laboris esse officia ipsum incididunt aliqua. Irure nostrud enim eu quis deserunt ut ea consectetur in. Ex aliquip aliquip cillum duis proident ipsum id elit veniam. Deserunt consectetur labore ex exercitation deserunt esse eiusmod. Reprehenderit id in id qui esse incididunt cillum est consequat minim ut in. Cupidatat deserunt consequat sint cupidatat nulla. Sunt veniam sint aliquip qui dolore irure voluptate esse magna laboris adipisicing culpa reprehenderit fugiat.\r\n</p>",
            "phone": "+1 (946) 438-2651",
            "feedbackCount": 50
        }
    },
    {
        "_id": "54cd15264239ad2be20cd98f",
        "image": {
            "url": "http://fc03.deviantart.net/fs71/i/2013/231/1/1/behind_the_mask__darth_vader_by_thefreaksworld-d6ivm0b.jpg"
        },
        "gender": 1,
        "name": "Beach Dillard",
        "info": {
            "bio": "<p>Lorem amet dolor do laborum dolor amet dolore proident amet nulla culpa voluptate esse. Ex eu occaecat sint tempor et voluptate non reprehenderit laborum ipsum pariatur veniam. Nisi duis labore labore ut velit minim qui nisi dolore sunt. Ut commodo deserunt est qui cillum ullamco amet. Laborum officia nulla enim dolor pariatur amet commodo deserunt occaecat tempor. Consectetur incididunt pariatur deserunt quis do elit dolor non.\r\n</p><p>Consequat minim incididunt ullamco labore qui culpa labore elit. Duis ipsum velit anim ullamco id est velit nulla ea est non irure. Cupidatat officia voluptate sit minim qui ut mollit amet. Do proident cillum aute nulla aute sunt excepteur consequat nisi. Nostrud anim sint cillum do irure proident eiusmod. In ullamco consectetur minim aute est in cillum tempor est aliqua incididunt pariatur amet excepteur.\r\n</p>",
            "phone": "+1 (904) 574-2268",
            "feedbackCount": 50
        }
    },
    {
        "_id": "54cd1526698267ff9cffba10",
        "image": {
            "url": "http://fc03.deviantart.net/fs71/i/2013/231/1/1/behind_the_mask__darth_vader_by_thefreaksworld-d6ivm0b.jpg"
        },
        "gender": 1,
        "name": "Cole Shepard",
        "info": {
            "bio": "<p>Laboris excepteur ipsum eiusmod et quis culpa sint esse nostrud reprehenderit. Cillum nostrud sit cupidatat labore cupidatat elit sit. Commodo Lorem ullamco anim proident magna Lorem. Adipisicing velit consequat amet voluptate est esse. Duis consectetur ex tempor eiusmod aliquip. Irure reprehenderit labore pariatur eu in ullamco incididunt Lorem quis aliquip dolor deserunt et.\r\n</p><p>Consectetur elit pariatur voluptate exercitation sit eiusmod anim cupidatat aliqua occaecat exercitation culpa dolor. Ipsum adipisicing anim cupidatat culpa ex in qui sit aliqua deserunt dolor occaecat qui veniam. Aliqua veniam pariatur et culpa quis pariatur. Minim officia commodo fugiat cupidatat dolor qui do cupidatat.\r\n</p>",
            "phone": "+1 (847) 550-2826",
            "feedbackCount": 50
        }
    },
    {
        "_id": "54cd152688e71b8115f7cbd2",
        "image": {
            "url": "http://fc03.deviantart.net/fs71/i/2013/231/1/1/behind_the_mask__darth_vader_by_thefreaksworld-d6ivm0b.jpg"
        },
        "gender": 1,
        "name": "Heath George",
        "info": {
            "bio": "<p>Veniam cupidatat esse proident pariatur fugiat consequat aliqua exercitation deserunt qui qui excepteur et. Lorem in anim in eu nisi consectetur anim elit est sunt magna. Anim cupidatat irure aliquip ea sint mollit ad laborum voluptate aliquip.\r\n</p><p>Reprehenderit exercitation aliquip voluptate nulla sunt aute sint esse labore reprehenderit laboris id excepteur. Id excepteur sit et veniam incididunt incididunt minim Lorem velit anim dolor do cillum ad. Eu enim officia amet adipisicing labore laborum nisi dolor veniam duis sint incididunt. Esse laboris ut ad duis aute velit. Aliqua quis exercitation enim in in excepteur eu tempor voluptate sint veniam.\r\n</p>",
            "phone": "+1 (940) 450-3420",
            "feedbackCount": 50
        }
    },
    {
        "_id": "54cd152678df192a3a266505",
        "image": {
            "url": "http://fc03.deviantart.net/fs71/i/2013/231/1/1/behind_the_mask__darth_vader_by_thefreaksworld-d6ivm0b.jpg"
        },
        "gender": 1,
        "name": "House Head",
        "info": {
            "bio": "<p>Eiusmod cupidatat laboris aliqua dolor in esse. Lorem fugiat consectetur ad consectetur nulla non qui. Labore laborum quis consectetur Lorem. Commodo magna irure incididunt enim culpa eiusmod amet ut ullamco ea. Reprehenderit velit minim nisi nulla. Non esse aliquip adipisicing id proident ullamco do voluptate exercitation minim voluptate.\r\n</p><p>Amet labore velit veniam deserunt esse reprehenderit laboris reprehenderit consectetur est mollit deserunt. Reprehenderit laborum dolor magna reprehenderit tempor incididunt irure eu esse ex. Adipisicing commodo aliqua excepteur amet occaecat duis reprehenderit sint quis. Eu deserunt nostrud ullamco nisi nisi cillum anim aute reprehenderit eu anim amet proident eiusmod. Aliquip ex eu Lorem duis cupidatat fugiat. Culpa proident amet aliquip ex incididunt consectetur nostrud fugiat velit ut sint deserunt adipisicing.\r\n</p>",
            "phone": "+1 (961) 582-2032",
            "feedbackCount": 50
        }
    },
    {
        "_id": "54cd1526aa5a108679173996",
        "image": {
            "url": "http://fc03.deviantart.net/fs71/i/2013/231/1/1/behind_the_mask__darth_vader_by_thefreaksworld-d6ivm0b.jpg"
        },
        "gender": 1,
        "name": "Earline Rodriquez",
        "info": {
            "bio": "<p>Do sit exercitation sit commodo sit do mollit voluptate. Laborum exercitation elit reprehenderit velit sint non adipisicing est quis id officia nulla. Aliquip sint consectetur velit velit commodo. Labore adipisicing aute magna occaecat commodo eiusmod non anim duis. Irure culpa laborum aliquip elit pariatur. Laboris irure nulla incididunt cupidatat pariatur sunt exercitation.\r\n</p><p>Nostrud labore proident labore nulla aute cupidatat nisi laborum incididunt pariatur ut. Consequat reprehenderit sit officia et. Exercitation voluptate officia id commodo exercitation consectetur aliqua nisi est aliquip. Anim consectetur velit sunt laborum proident. Id amet mollit fugiat magna consectetur anim veniam. Magna dolore laboris ut reprehenderit velit cupidatat do proident occaecat tempor proident eiusmod. Consequat anim sunt ea nisi dolor minim.\r\n</p>",
            "phone": "+1 (962) 443-2028",
            "feedbackCount": 50
        }
    },
    {
        "_id": "54cd1526845829e507b81fb3",
        "image": {
            "url": "http://fc03.deviantart.net/fs71/i/2013/231/1/1/behind_the_mask__darth_vader_by_thefreaksworld-d6ivm0b.jpg"
        },
        "gender": 0,
        "name": "Burris England",
        "info": {
            "bio": "<p>Do ut mollit laboris voluptate amet veniam. Deserunt laborum cupidatat et nisi minim. Deserunt tempor commodo mollit mollit aliquip culpa eu. Minim non consectetur laboris id eu anim culpa dolor sunt cillum consectetur.\r\n</p><p>Mollit dolor elit ea Lorem sunt dolore nisi est non. Nisi velit magna quis aliqua labore proident minim in. Laboris dolor in amet eiusmod laboris veniam exercitation do voluptate consectetur ea magna. Sunt pariatur qui ullamco culpa. Labore veniam commodo tempor anim labore deserunt aliqua mollit dolor. Exercitation irure eu commodo officia occaecat quis non elit reprehenderit qui ea id consequat adipisicing.\r\n</p>",
            "phone": "+1 (894) 577-2348",
            "feedbackCount": 50
        }
    },
    {
        "_id": "54cd152600c5d42155be783a",
        "image": {
            "url": "http://fc03.deviantart.net/fs71/i/2013/231/1/1/behind_the_mask__darth_vader_by_thefreaksworld-d6ivm0b.jpg"
        },
        "gender": 1,
        "name": "Savage Mcgowan",
        "info": {
            "bio": "<p>Mollit laboris sit labore dolore non veniam ad aliqua tempor. Labore in commodo laborum officia anim labore. Aute aliquip quis ad reprehenderit. Tempor pariatur amet irure ea sint veniam laborum sunt consectetur est mollit ipsum commodo. Esse ullamco amet voluptate laboris.\r\n</p><p>Eiusmod officia voluptate officia veniam veniam qui culpa enim quis ipsum. Magna commodo magna est incididunt in deserunt et incididunt officia aute. Aliqua mollit occaecat magna qui deserunt. Aute ut deserunt adipisicing minim laboris exercitation cillum nostrud excepteur exercitation culpa do deserunt. Ipsum veniam eu quis proident ut commodo culpa irure. Nulla veniam culpa sunt labore incididunt Lorem eu.\r\n</p>",
            "phone": "+1 (995) 524-2437",
            "feedbackCount": 50
        }
    },
    {
        "_id": "54cd1526f48c96e1b12a4c41",
        "image": {
            "url": "http://fc03.deviantart.net/fs71/i/2013/231/1/1/behind_the_mask__darth_vader_by_thefreaksworld-d6ivm0b.jpg"
        },
        "gender": 0,
        "name": "Lowery Wheeler",
        "info": {
            "bio": "<p>Et in voluptate sit sint sit laborum commodo. Aute cillum incididunt non minim cupidatat. Nulla sint adipisicing Lorem aute velit et occaecat nisi exercitation ut. Qui do magna commodo laboris aute nostrud ut. Sit do eiusmod duis tempor dolor ut est nisi veniam esse nostrud consequat.\r\n</p><p>Reprehenderit ipsum pariatur nisi elit culpa ex eiusmod laborum aliquip enim. Elit ex in excepteur consequat anim consectetur laboris Lorem aliqua et dolor mollit. Quis occaecat dolore tempor in elit duis.\r\n</p>",
            "phone": "+1 (837) 509-2915",
            "feedbackCount": 10
        }
    },
    {
        "_id": "54cd152623cc3a1272a0e561",
        "image": {
            "url": "http://fc03.deviantart.net/fs71/i/2013/231/1/1/behind_the_mask__darth_vader_by_thefreaksworld-d6ivm0b.jpg"
        },
        "gender": 1,
        "name": "Tammi Horn",
        "info": {
            "bio": "<p>Nisi officia adipisicing aliquip eiusmod reprehenderit et mollit ex incididunt cillum quis ea ea non. Nostrud anim pariatur eu exercitation. Non id cillum proident mollit esse aliqua officia laboris dolor ex voluptate. Sunt qui est qui sint occaecat pariatur reprehenderit consectetur dolore duis. Id adipisicing deserunt amet nulla cupidatat duis. Incididunt dolore duis qui ipsum id labore do velit sit sunt cillum incididunt. Laboris officia ad elit magna amet consequat aliqua excepteur officia.\r\n</p><p>Duis deserunt commodo deserunt ullamco deserunt. Anim deserunt occaecat commodo cupidatat sint sunt et incididunt Lorem tempor laboris eu ea aute. Culpa ea nulla enim in dolor dolor tempor exercitation magna tempor enim minim cillum. Tempor voluptate voluptate tempor eiusmod. Veniam ea exercitation ex eiusmod consequat sunt consequat tempor in consequat.\r\n</p>",
            "phone": "+1 (977) 545-2380",
            "feedbackCount": 10
        }
    },
    {
        "_id": "54cd152647ec7de8cc3f328e",
        "image": {
            "url": "http://fc03.deviantart.net/fs71/i/2013/231/1/1/behind_the_mask__darth_vader_by_thefreaksworld-d6ivm0b.jpg"
        },
        "gender": 1,
        "name": "Gwen Carrillo",
        "info": {
            "bio": "<p>Tempor est mollit ipsum ipsum consequat commodo aliqua et dolore incididunt do ad eiusmod sint. In excepteur veniam dolore dolor nisi ad labore laboris do laborum anim aute. Sint ipsum dolor nostrud consectetur.\r\n</p><p>Velit ad voluptate anim excepteur ad ullamco dolor deserunt commodo fugiat non velit. Nulla ullamco aliquip est laboris irure in officia id nulla quis laborum consectetur. Adipisicing in sunt veniam cupidatat irure est cillum nulla.\r\n</p>",
            "phone": "+1 (860) 587-2718",
            "feedbackCount": 10
        }
    },
    {
        "_id": "54cd1526428776b2cc880f93",
        "image": {
            "url": "http://fc03.deviantart.net/fs71/i/2013/231/1/1/behind_the_mask__darth_vader_by_thefreaksworld-d6ivm0b.jpg"
        },
        "gender": 1,
        "name": "Della Yang",
        "info": {
            "bio": "<p>Velit ex voluptate ut pariatur anim amet. Irure consequat duis eiusmod incididunt minim irure amet cillum ipsum veniam veniam sint. Magna ipsum ullamco excepteur laborum dolor laborum mollit anim qui laboris minim qui ad minim. Et ea cupidatat duis proident consequat ad irure tempor veniam ad adipisicing dolore laborum elit. Commodo voluptate ad nisi laborum veniam ea dolor culpa laborum. Ad laboris do do laboris ex dolore ex qui.\r\n</p><p>Mollit est voluptate commodo non est magna non aliqua. Laborum fugiat sunt id veniam duis Lorem enim voluptate Lorem. Anim consectetur voluptate aliquip elit aute. Incididunt nisi adipisicing proident esse anim.\r\n</p>",
            "phone": "+1 (986) 442-2824",
            "feedbackCount": 50
        }
    },
    {
        "_id": "54cd152678c1eabd1ac5d162",
        "image": {
            "url": "http://fc03.deviantart.net/fs71/i/2013/231/1/1/behind_the_mask__darth_vader_by_thefreaksworld-d6ivm0b.jpg"
        },
        "gender": 1,
        "name": "Hilary Howard",
        "info": {
            "bio": "<p>Excepteur eu esse sunt irure magna. Enim laborum consequat nostrud est duis incididunt consequat reprehenderit est. Qui exercitation adipisicing culpa Lorem velit ut ex esse. Ullamco eu laboris fugiat adipisicing commodo ex. Dolore non esse esse id est minim ipsum exercitation proident aute dolore sunt. Quis exercitation occaecat duis cupidatat aliqua laboris est ipsum reprehenderit culpa adipisicing non pariatur consectetur.\r\n</p><p>Elit esse laboris consectetur tempor velit enim est adipisicing elit. Reprehenderit nulla in nulla cillum qui. Veniam quis adipisicing pariatur labore adipisicing est aliquip adipisicing culpa sunt cillum minim qui. Proident non ullamco officia incididunt dolore officia do commodo.\r\n</p>",
            "phone": "+1 (815) 492-2529",
            "feedbackCount": 10
        }
    },
    {
        "_id": "54cd1526de4b2f2928943d4a",
        "image": {
            "url": "http://fc03.deviantart.net/fs71/i/2013/231/1/1/behind_the_mask__darth_vader_by_thefreaksworld-d6ivm0b.jpg"
        },
        "gender": 1,
        "name": "Abigail Davidson",
        "info": {
            "bio": "<p>Nisi pariatur sunt mollit et aliquip. Occaecat laboris et adipisicing nostrud elit qui mollit do excepteur exercitation quis. In eiusmod est laborum ut fugiat et fugiat dolor fugiat. Non excepteur labore occaecat officia mollit consectetur aliqua tempor culpa.\r\n</p><p>Laborum ut amet proident deserunt Lorem. Quis adipisicing nostrud nisi pariatur dolore ad tempor consectetur aliqua quis dolore irure. Culpa consectetur ipsum consectetur elit. Ex veniam ex est occaecat ullamco. Laborum do officia elit laborum qui eu do adipisicing esse.\r\n</p>",
            "phone": "+1 (812) 503-3209",
            "feedbackCount": 10
        }
    }
]
